645 , 364
4 , 413
165 , 325
531 , 346
36 , 183
279 , 256
855 , 159
833 , 225
666 , 434
693 , 354
6 , 557
162 , 73
577 , 217
638 , 223
491 , 205
401 , 280
625 , 276
546 , 420
867 , 36
774 , 227
853 , 136
580 , 106
475 , 90
592 , 371
507 , 267
203 , 76
370 , 221
99 , 203
860 , 92
836 , 188
268 , 339
750 , 108
710 , 289
374 , 99
680 , 203
383 , 343
48 , 103
746 , 179
881 , 158
733 , 343
372 , 161
610 , 317
314 , 357
192 , 224
812 , 84
719 , 242
80 , 51
730 , 228
543 , 135
254 , 170